%YAML 1.1
%TAG !u! tag:unity3d.com,2011:
--- !u!78 &1
TagManager:
  serializedVersion: 2
  tags:
  - staffHolder
  - staff
  - scanner
  - staff2
  - staff3
  - staff4
  - post200
  - post150
  - post100
  - post50
  - ColorIndex1
  - ColorIndex2
  - ColorIndex3
  - ColorIndex4
  - ColorIndex5
  - ColorIndex6
  - postHolder
  - obsMarker
  - proMarker
  - defMarker
  - doneMarker
  - SeeBoard
  - SeeStaff
  - mutebar
  layers:
  - Default
  - TransparentFX
  - Ignore Raycast
  - 
  - Water
  - UI
  - 
  - 
  - staff
  - staffholder
  - scanner
  - colorMark
  - panner
  - posts
  - postholders
  - 
  - 
  - 
  - 
  - 
  - 
  - 
  - 
  - 
  - 
  - 
  - 
  - 
  - 
  - 
  - 
  - 
  m_SortingLayers:
  - name: Default
    uniqueID: 0
    locked: 0
